ggplot2 그래프
…
선그래프는 데이터를 선으로 표현한 그래프로, 환율이나 주가지수와 같이 시간에 따라 달라지는 값을 그래프를 표현할 때 이용한다.

일정 시간 간격을 두고 나열된 데이터를 시계열 데이터라고 하고, 시계열 데이터를 선으로 표현한 그래프를 시계열 그래프라고 한다.

시간에 따른 실업자수의 변화

시간의 변화에 따라 실업자 수가 어떻게 변하는지 시계열 그래프를 작성하여 살펴보자.

x축은 시간을 의미하는 date 변수, y축은 실업자 수를 의미하는 unemploy 변수를 지정하고 선그래프로 표현하기 위해 geom_line()을 추가한다.

먼저, economics 자료구조를 데이터프레임 형태로 변경하자. economics의 자료구조는 tibble이다. tibble은 data.frame을 현대적으로 재구성한 것으로 대용량 데이터를 다루는데 보다 편리하다.

economics     # tibble 자료구조

## # A tibble: 574 x 6
##    date         pce    pop psavert uempmed unemploy
##    <date>     <dbl>  <dbl>   <dbl>   <dbl>    <dbl>
##  1 1967-07-01  507. 198712    12.6     4.5     2944
##  2 1967-08-01  510. 198911    12.6     4.7     2945
##  3 1967-09-01  516. 199113    11.9     4.6     2958
##  4 1967-10-01  512. 199311    12.9     4.9     3143
##  5 1967-11-01  517. 199498    12.8     4.7     3066
##  6 1967-12-01  525. 199657    11.8     4.8     3018
##  7 1968-01-01  531. 199808    11.7     5.1     2878
##  8 1968-02-01  534. 199920    12.3     4.5     3001
##  9 1968-03-01  544. 200056    11.7     4.1     2877
## 10 1968-04-01  544  200208    12.3     4.6     2709
## # ... with 564 more rows
…
